;Insert data jenis surat;02/03/2010 11:48:15;xx (xx);
;Ubah data jenis surat;02/03/2010 11:48:33;test 11cccc (ts);
;Hapus data jenis surat;02/03/2010 11:49:05; (ts);
;Insert data surat ajuan;02/03/2010 12:38:50;test (2222);
;Insert data surat ajuan;02/03/2010 12:40:43;dddddddddddddddddd (333);
;Ubah data surat ajuan;02/03/2010 12:41:18;test dddddddddddddddddddddd (2222);
;Hapus data surat ajuan;02/03/2010 12:43:09; (2222);
;Hapus data surat ajuan;02/03/2010 13:08:21; (333);
;Insert data sifat surat;02/03/2010 13:18:30;xxxxxxxxxxxxxx (xxxx);
;Ubah data satuan lampiran;02/03/2010 13:25:33; ();
;Hapus data satuan lampiran;02/03/2010 13:26:28; ();
;Insert data satuan lampiran;02/03/2010 14:03:24;lembar ();
;Insert data satuan lampiran;02/03/2010 14:04:29;lembar ();
;Insert data satuan lampiran;02/03/2010 14:12:19;lembar ();
;Insert data satuan lampiran;02/03/2010 14:16:40;lembar ();
;Insert data satuan lampiran;02/03/2010 14:18:23;Lembar ();
;Insert data satuan lampiran;02/03/2010 14:18:45;Buku ();
;Insert data satuan lampiran;02/03/2010 14:19:07;CD ();
;Insert data satuan lampiran;02/03/2010 14:19:16;Video ();
;Insert data satuan lampiran;02/03/2010 14:19:26;Dokumen ();
;Insert data satuan lampiran;02/03/2010 14:19:35;xxxxxxxxxxxxxxxxxxxxx ();
;Insert data satuan lampiran;02/03/2010 14:20:24;xxxxxxxxxxxxxxxxxxxx ();
;Ubah data satuan lampiran;02/03/2010 14:26:47;xxxxxxxxxxxxhhhhhhhh (6);
;Hapus data satuan lampiran;02/03/2010 14:29:11; (6);
;Ubah status data user;02/03/2010 14:33:48;48 (1);
;Ubah data user;02/03/2010 14:48:09;indah (180004745);
;Ubah data user;02/03/2010 14:48:18;indah (180004745);
;Insert Pengumuman;02/03/2010 14:59:58; (Review Aplikasi Sistem Informasi Persuratan Terpadu Pertama);
;Hapus Pengumuman;02/03/2010 15:00:08; ();
;Insert Pengumuman;02/03/2010 15:00:17; (Review Aplikasi Sistem Informasi Persuratan Terpadu Pertama);
;Insert Pengumuman;02/03/2010 15:03:04; (xxxxxxxxxxxxxxxxxxxxxxxxxxxxxxxx);
;Update Pengumuman;02/03/2010 15:04:22; (test meng edit pengumuman);
;Insert Pengumuman;02/03/2010 15:09:39; (222222222222222222);
;Update Pengumuman;02/03/2010 15:09:48; (222222222222222222 dqweqwe);
;Hapus Pengumuman;02/03/2010 15:11:26; ();
;Hapus Pengumuman;02/03/2010 15:14:25; ();
;Update Pengumuman;02/03/2010 15:16:01; (coming soon \'Pelatihan Aplikasi Persuratan\');
;Insert Pengumuman;02/03/2010 15:18:12; (akan tiba \'xxx\');
;Update Pengumuman;02/03/2010 15:18:37; (akan tiba \'xxx\');
;Insert Pengumuman;02/03/2010 15:20:21; (asdgasdf \'d\');
;Insert Pengumuman;02/03/2010 15:21:47; (\'a\');
;Insert data sifat surat;02/03/2010 19:35:18;xxxxxxxxxx (xx);
;Insert data sifat penomoran surat keluar;02/03/2010 19:37:02;xxx (xxx);
;Insert data sifat penomoran surat keluar;02/03/2010 19:45:50;Biasa (B);
;Insert data sifat penomoran surat keluar;02/03/2010 19:47:45;xx (xx);
;Ubah data sifat penomoran surat keluar;02/03/2010 20:45:38;xx1 (xx1);
;Ubah data sifat penomoran surat keluar;02/03/2010 20:50:56;xx2 (xx2);
;Hapus data sifat penomoran surat keluar;02/03/2010 20:51:42; (xx2);
