Edy Martha, S.Kom.;Ubah data user;15/09/2009 00:31:35;joko (198503022009021001);
Edy Martha, S.Kom.;Ubah data user;15/09/2009 00:31:57;edy (197803312005011002);
Joko Prihantoro, A.Md;Ubah data user;15/09/2009 01:56:54;joko (198503022009021001);
Rosmiyati, S.Sos.;Hapus data user;15/09/2009 15:45:34;7 (hapus);
Rosmiyati, S.Sos.;Hapus data user;15/09/2009 15:45:42;7 (hapus);
Rosmiyati, S.Sos.;Hapus data user;15/09/2009 15:45:55;6 (hapus);
Rosmiyati, S.Sos.;Hapus data user;15/09/2009 15:46:06;5 (hapus);
Rosmiyati, S.Sos.;Hapus data user;15/09/2009 15:46:17;18 (hapus);
Rosmiyati, S.Sos.;Insert data user;15/09/2009 15:52:07;mustamin (180004109);
