Indah Fitria Puri, S.T.;Ganti Password;12/10/2009 00:13:36;indah (180004745);
;Ganti Password;12/10/2009 00:21:02;indah (180004745);
;Ganti Password;12/10/2009 00:22:45;indah (180004745);
;Ganti Password;12/10/2009 00:23:55;indah (180004745);
;Ganti Password;12/10/2009 00:50:04;indah (180004745);
;Ganti Password;12/10/2009 00:50:50;indah (180004745);
;Ganti Password;12/10/2009 00:52:28;indah (180004745);
;Ganti Password;12/10/2009 00:59:05;indah (180004745);
;Ganti Password;12/10/2009 00:59:22;indah (180004745);
;Ganti Password;12/10/2009 02:10:16;indah (180004745);
