Arie Mustofa, A.Md;Ubah status data user;12/11/2009 12:33:12;60 (1);
Arie Mustofa, A.Md;Ubah status data user;12/11/2009 12:33:37;61 (1);
Arie Mustofa, A.Md;Ubah data user;12/11/2009 16:04:37;arie (180007011);
